Exploring the 2013 BRFSS Data
…
## 'data.frame':    413524 obs. of  3 variables:
##  $ havarth3: Factor w/ 2 levels "Yes","No": 1 2 1 2 2 2 1 1 2 2 ...
##  $ addepev2: Factor w/ 2 levels "Yes","No": 1 1 1 2 2 2 2 2 2 2 ...
##  $ asthma3 : Factor w/ 2 levels "Yes","No": 1 2 2 2 1 2 2 2 2 2 ...

Binary Illness Variable

#Include diabetes, group and filter
Xadi3 %>%
  group_by(havarth3, addepev2, asthma3, diabete3) %>%
  filter(havarth3 == "Yes" | addepev2 == "Yes" | asthma3 == "Yes" | diabete3 != "No" ) %>%
  summarise(count = n())

## Source: local data frame [31 x 5]
## Groups: havarth3, addepev2, asthma3 [?]
## 
##    havarth3 addepev2 asthma3                                   diabete3
##      <fctr>   <fctr>  <fctr>                                     <fctr>
## 1       Yes      Yes     Yes                                        Yes
## 2       Yes      Yes     Yes Yes, but female told only during pregnancy
## 3       Yes      Yes     Yes                                         No
## 4       Yes      Yes     Yes    No, pre-diabetes or borderline diabetes
## 5       Yes      Yes      No                                        Yes
## 6       Yes      Yes      No Yes, but female told only during pregnancy
## 7       Yes      Yes      No                                         No
## 8       Yes      Yes      No    No, pre-diabetes or borderline diabetes
## 9       Yes       No     Yes                                        Yes
## 10      Yes       No     Yes Yes, but female told only during pregnancy
## # ... with 21 more rows, and 1 more variables: count <int>
…
